Lexical density analysis of lyrics
…
## [1] "dwell purity content nurture native land beneath sea abundance stab oppressor blade awaken torment silence slash tyranny hostile provoke righteous son invade dwell restrain yield strike throat oppressor possession serpent vengance hold wrath coil earth fury dwell strike fear venom courses veins poison rage revenge destroy kingdom pulse sea blind age dream spit hellish crusade suppress condemned probing moral bored profane rose strike serpent vengance"

For example, the token sea occurs two times, the token strike occurs three times, and the token age occurs once.

corpus <- VCorpus(VectorSource(lyrics_1$stemmedwords))
word_collect <- tidy(corpus) %>%
  select(text) %>%
  unnest_tokens(word, text) %>%
  count(word) 
print(word_collect%>%
  arrange(desc(n)))

## # A tibble: 57 x 2
##    word          n
##    <chr>     <int>
##  1 dwell         3
##  2 strike        3
##  3 oppressor     2
##  4 sea           2
##  5 serpent       2
##  6 vengance      2
##  7 abundance     1
##  8 age           1
##  9 awaken        1
## 10 beneath       1
## #  with 47 more rows
…
